{
  "fields": {
    "defaults": {
      "databasename": ".*",
      "application_name": ".*"
    },
    "php.ini": {
      "memory_limit": "[0-9]+"
    },
    "Vagrantfile": {
      "synced_folder": ".*",
      "hostname": ".*"
    }
  }
}